[
  {
    "id": "3",
    "type": 7,
    "label": "Sous-traitance",
    "description": "Sous-traitance",
    "searchTerms": "Sous-traitance",
    "createdOn": "2020-07-15T17:23:47+00:00",
    "lastModifiedOn": "2020-07-15T17:23:49+00:00"
  },
  {
    "id": "1",
    "type": 8,
    "label": "Achats Matériels",
    "description": "Achats Matériels",
    "searchTerms": "Achats Matériels",
    "createdOn": "2020-07-15T17:23:47+00:00",
    "lastModifiedOn": "2020-07-15T17:23:49+00:00"
  },
  {
    "id": "2",
    "type": 9,
    "label": "Achat Main d'oeuvre",
    "description": "Achat Main d'oeuvre",
    "searchTerms": "Achat Main d'oeuvre",
    "createdOn": "2020-07-15T17:23:47+00:00",
    "lastModifiedOn": "2020-07-15T17:23:49+00:00"
  }
]