{
  "runtimeTarget": {
    "name": ".NETStandard,Version=v2.0/",
    "signature": ""
  },
  "compilationOptions": {},
  "targets": {
    ".NETStandard,Version=v2.0": {},
    ".NETStandard,Version=v2.0/": {
      "Axiobat.Application/1.0.0": {
        "dependencies": {
          "AutoMapper": "9.0.0",
          "AutoMapper.Extensions.Microsoft.DependencyInjection": "7.0.0",
          "Axiobat.Domain": "1.0.0",
          "DnsClient": "1.2.0",
          "FluentValidation": "8.6.1",
          "Microsoft.Extensions.DependencyInjection.Abstractions": "2.1.1",
          "Microsoft.Extensions.Identity.Core": "2.1.0",
          "NETStandard.Library": "2.0.3"
        },
        "runtime": {
          "Axiobat.Application.dll": {}
        }
      },
      "Application.Common/1.0.0.29": {
        "dependencies": {
          "Newtonsoft.Json": "12.0.3"
        },
        "runtime": {
          "lib/netstandard2.0/Application.Common.dll": {
            "assemblyVersion": "1.0.0.0",
            "fileVersion": "1.0.0.0"
          }
        }
      },
      "AutoMapper/9.0.0": {
        "dependencies": {
          "Microsoft.CSharp": "4.7.0",
          "System.Reflection.Emit": "4.3.0"
        },
        "runtime": {
          "lib/netstandard2.0/AutoMapper.dll": {
            "assemblyVersion": "9.0.0.0",
            "fileVersion": "9.0.0.0"
          }
        }
      },
      "AutoMapper.Extensions.Microsoft.DependencyInjection/7.0.0": {
        "dependencies": {
          "AutoMapper": "9.0.0",
          "Microsoft.Extensions.DependencyInjection.Abstractions": "2.1.1"
        },
        "runtime": {
          "lib/netstandard2.0/AutoMapper.Extensions.Microsoft.DependencyInjection.dll": {
            "assemblyVersion": "0.0.0.0",
            "fileVersion": "7.0.0.0"
          }
        }
      },
      "DnsClient/1.2.0": {
        "dependencies": {
          "System.Buffers": "4.4.0"
        },
        "runtime": {
          "lib/netstandard2.0/DnsClient.dll": {
            "assemblyVersion": "1.2.0.0",
            "fileVersion": "1.2.0.0"
          }
        }
      },
      "FluentValidation/8.6.1": {
        "dependencies": {
          "System.ComponentModel.Annotations": "4.5.0"
        },
        "runtime": {
          "lib/netstandard2.0/FluentValidation.dll": {
            "assemblyVersion": "8.0.0.0",
            "fileVersion": "8.6.1.0"
          }
        }
      },
      "Microsoft.AspNetCore.Cryptography.Internal/2.1.0": {
        "runtime": {
          "lib/netstandard2.0/Microsoft.AspNetCore.Cryptography.Internal.dll": {
            "assemblyVersion": "2.1.0.0",
            "fileVersion": "2.1.0.18136"
          }
        }
      },
      "Microsoft.AspNetCore.Cryptography.KeyDerivation/2.1.0": {
        "dependencies": {
          "Microsoft.AspNetCore.Cryptography.Internal": "2.1.0"
        },
        "runtime": {
          "lib/netstandard2.0/Microsoft.AspNetCore.Cryptography.KeyDerivation.dll": {
            "assemblyVersion": "2.1.0.0",
            "fileVersion": "2.1.0.18136"
          }
        }
      },
      "Microsoft.CSharp/4.7.0": {
        "runtime": {
          "lib/netstandard2.0/Microsoft.CSharp.dll": {
            "assemblyVersion": "4.0.5.0",
            "fileVersion": "4.700.19.56404"
          }
        }
      },
      "Microsoft.Extensions.Configuration/2.1.0": {
        "dependencies": {
          "Microsoft.Extensions.Configuration.Abstractions": "2.1.0"
        },
        "runtime": {
          "lib/netstandard2.0/Microsoft.Extensions.Configuration.dll": {
            "assemblyVersion": "2.1.0.0",
            "fileVersion": "2.1.0.18136"
          }
        }
      },
      "Microsoft.Extensions.Configuration.Abstractions/2.1.0": {
        "dependencies": {
          "Microsoft.Extensions.Primitives": "2.1.0"
        },
        "runtime": {
          "lib/netstandard2.0/Microsoft.Extensions.Configuration.Abstractions.dll": {
            "assemblyVersion": "2.1.0.0",
            "fileVersion": "2.1.0.18136"
          }
        }
      },
      "Microsoft.Extensions.Configuration.Binder/2.1.0": {
        "dependencies": {
          "Microsoft.Extensions.Configuration": "2.1.0"
        },
        "runtime": {
          "lib/netstandard2.0/Microsoft.Extensions.Configuration.Binder.dll": {
            "assemblyVersion": "2.1.0.0",
            "fileVersion": "2.1.0.18136"
          }
        }
      },
      "Microsoft.Extensions.DependencyInjection.Abstractions/2.1.1": {
        "runtime": {
          "lib/netstandard2.0/Microsoft.Extensions.DependencyInjection.Abstractions.dll": {
            "assemblyVersion": "2.1.1.0",
            "fileVersion": "2.1.1.18157"
          }
        }
      },
      "Microsoft.Extensions.Identity.Core/2.1.0": {
        "dependencies": {
          "Microsoft.AspNetCore.Cryptography.KeyDerivation": "2.1.0",
          "Microsoft.Extensions.Logging": "2.1.0",
          "Microsoft.Extensions.Options": "2.1.0",
          "System.ComponentModel.Annotations": "4.5.0"
        },
        "runtime": {
          "lib/netstandard2.0/Microsoft.Extensions.Identity.Core.dll": {
            "assemblyVersion": "2.1.0.0",
            "fileVersion": "2.1.0.18136"
          }
        }
      },
      "Microsoft.Extensions.Logging/2.1.0": {
        "dependencies": {
          "Microsoft.Extensions.Configuration.Binder": "2.1.0",
          "Microsoft.Extensions.DependencyInjection.Abstractions": "2.1.1",
          "Microsoft.Extensions.Logging.Abstractions": "2.1.0",
          "Microsoft.Extensions.Options": "2.1.0"
        },
        "runtime": {
          "lib/netstandard2.0/Microsoft.Extensions.Logging.dll": {
            "assemblyVersion": "2.1.0.0",
            "fileVersion": "2.1.0.18136"
          }
        }
      },
      "Microsoft.Extensions.Logging.Abstractions/2.1.0": {
        "runtime": {
          "lib/netstandard2.0/Microsoft.Extensions.Logging.Abstractions.dll": {
            "assemblyVersion": "2.1.0.0",
            "fileVersion": "2.1.0.18136"
          }
        }
      },
      "Microsoft.Extensions.Options/2.1.0": {
        "dependencies": {
          "Microsoft.Extensions.DependencyInjection.Abstractions": "2.1.1",
          "Microsoft.Extensions.Primitives": "2.1.0"
        },
        "runtime": {
          "lib/netstandard2.0/Microsoft.Extensions.Options.dll": {
            "assemblyVersion": "2.1.0.0",
            "fileVersion": "2.1.0.18136"
          }
        }
      },
      "Microsoft.Extensions.Primitives/2.1.0": {
        "dependencies": {
          "System.Memory": "4.5.0",
          "System.Runtime.CompilerServices.Unsafe": "4.5.0"
        },
        "runtime": {
          "lib/netstandard2.0/Microsoft.Extensions.Primitives.dll": {
            "assemblyVersion": "2.1.0.0",
            "fileVersion": "2.1.0.18136"
          }
        }
      },
      "Microsoft.NETCore.Platforms/1.1.0": {},
      "Microsoft.NETCore.Targets/1.1.0": {},
      "NETStandard.Library/2.0.3": {
        "dependencies": {
          "Microsoft.NETCore.Platforms": "1.1.0"
        }
      },
      "Newtonsoft.Json/12.0.3": {
        "runtime": {
          "lib/netstandard2.0/Newtonsoft.Json.dll": {
            "assemblyVersion": "12.0.0.0",
            "fileVersion": "12.0.3.23909"
          }
        }
      },
      "System.Buffers/4.4.0": {
        "runtime": {
          "lib/netstandard2.0/System.Buffers.dll": {
            "assemblyVersion": "4.0.2.0",
            "fileVersion": "4.6.25519.3"
          }
        }
      },
      "System.ComponentModel.Annotations/4.5.0": {
        "runtime": {
          "lib/netstandard2.0/System.ComponentModel.Annotations.dll": {
            "assemblyVersion": "4.2.1.0",
            "fileVersion": "4.6.26515.6"
          }
        }
      },
      "System.IO/4.3.0": {
        "dependencies": {
          "Microsoft.NETCore.Platforms": "1.1.0",
          "Microsoft.NETCore.Targets": "1.1.0",
          "System.Runtime": "4.3.0",
          "System.Text.Encoding": "4.3.0",
          "System.Threading.Tasks": "4.3.0"
        }
      },
      "System.Memory/4.5.0": {
        "dependencies": {
          "System.Buffers": "4.4.0",
          "System.Numerics.Vectors": "4.4.0",
          "System.Runtime.CompilerServices.Unsafe": "4.5.0"
        },
        "runtime": {
          "lib/netstandard2.0/System.Memory.dll": {
            "assemblyVersion": "4.0.1.0",
            "fileVersion": "4.6.26515.6"
          }
        }
      },
      "System.Numerics.Vectors/4.4.0": {
        "runtime": {
          "lib/netstandard2.0/System.Numerics.Vectors.dll": {
            "assemblyVersion": "4.1.3.0",
            "fileVersion": "4.6.25519.3"
          }
        }
      },
      "System.Reflection/4.3.0": {
        "dependencies": {
          "Microsoft.NETCore.Platforms": "1.1.0",
          "Microsoft.NETCore.Targets": "1.1.0",
          "System.IO": "4.3.0",
          "System.Reflection.Primitives": "4.3.0",
          "System.Runtime": "4.3.0"
        }
      },
      "System.Reflection.Emit/4.3.0": {
        "dependencies": {
          "System.IO": "4.3.0",
          "System.Reflection": "4.3.0",
          "System.Reflection.Emit.ILGeneration": "4.3.0",
          "System.Reflection.Primitives": "4.3.0",
          "System.Runtime": "4.3.0"
        },
        "runtime": {
          "lib/netstandard1.3/System.Reflection.Emit.dll": {
            "assemblyVersion": "4.0.2.0",
            "fileVersion": "4.6.24705.1"
          }
        }
      },
      "System.Reflection.Emit.ILGeneration/4.3.0": {
        "dependencies": {
          "System.Reflection": "4.3.0",
          "System.Reflection.Primitives": "4.3.0",
          "System.Runtime": "4.3.0"
        },
        "runtime": {
          "lib/netstandard1.3/System.Reflection.Emit.ILGeneration.dll": {
            "assemblyVersion": "4.0.2.0",
            "fileVersion": "4.6.24705.1"
          }
        }
      },
      "System.Reflection.Primitives/4.3.0": {
        "dependencies": {
          "Microsoft.NETCore.Platforms": "1.1.0",
          "Microsoft.NETCore.Targets": "1.1.0",
          "System.Runtime": "4.3.0"
        }
      },
      "System.Runtime/4.3.0": {
        "dependencies": {
          "Microsoft.NETCore.Platforms": "1.1.0",
          "Microsoft.NETCore.Targets": "1.1.0"
        }
      },
      "System.Runtime.CompilerServices.Unsafe/4.5.0": {
        "runtime": {
          "lib/netstandard2.0/System.Runtime.CompilerServices.Unsafe.dll": {
            "assemblyVersion": "4.0.4.0",
            "fileVersion": "0.0.0.0"
          }
        }
      },
      "System.Text.Encoding/4.3.0": {
        "dependencies": {
          "Microsoft.NETCore.Platforms": "1.1.0",
          "Microsoft.NETCore.Targets": "1.1.0",
          "System.Runtime": "4.3.0"
        }
      },
      "System.Threading.Tasks/4.3.0": {
        "dependencies": {
          "Microsoft.NETCore.Platforms": "1.1.0",
          "Microsoft.NETCore.Targets": "1.1.0",
          "System.Runtime": "4.3.0"
        }
      },
      "Axiobat.Domain/1.0.0": {
        "dependencies": {
          "Application.Common": "1.0.0.29",
          "Microsoft.CSharp": "4.7.0",
          "Newtonsoft.Json": "12.0.3"
        },
        "runtime": {
          "Axiobat.Domain.dll": {}
        }
      }
    }
  },
  "libraries": {
    "Axiobat.Application/1.0.0": {
      "type": "project",
      "serviceable": false,
      "sha512": ""
    },
    "Application.Common/1.0.0.29": {
      "type": "package",
      "serviceable": true,
      "sha512": "sha512-hrIVXLFk730vgekCj2AYCji1iRB8x5N68Vz37SdI9p3ctYPhM7K7i+6Wk65XyPpdFRnkGiftMsdd7TLTNLLiPQ==",
      "path": "application.common/1.0.0.29",
      "hashPath": "application.common.1.0.0.29.nupkg.sha512"
    },
    "AutoMapper/9.0.0": {
      "type": "package",
      "serviceable": true,
      "sha512": "sha512-xCqvoxT4HIrNY/xlXG9W+BA/awdrhWvMTKTK/igkGSRbhOhpl3Q8O8Gxlhzjc9JsYqE7sS6AxgyuUUvZ6R5/Bw==",
      "path": "automapper/9.0.0",
      "hashPath": "automapper.9.0.0.nupkg.sha512"
    },
    "AutoMapper.Extensions.Microsoft.DependencyInjection/7.0.0": {
      "type": "package",
      "serviceable": true,
      "sha512": "sha512-szI4yeRIM7GWe9JyekW0dKYehPB0t6M+I55fPeCebN6PhS7zQZa0eG3bgOnOx+eP3caSNoE7KEJs2rk7MLsh8w==",
      "path": "automapper.extensions.microsoft.dependencyinjection/7.0.0",
      "hashPath": "automapper.extensions.microsoft.dependencyinjection.7.0.0.nupkg.sha512"
    },
    "DnsClient/1.2.0": {
      "type": "package",
      "serviceable": true,
      "sha512": "sha512-P34wUkeqU4FoQiOMV8OjpdeDZKs4d3r+VlHuKJ6eO5feiZgna3+9MF5orHRUn3DAv1g/HPE5hlkGucmxmsFfBw==",
      "path": "dnsclient/1.2.0",
      "hashPath": "dnsclient.1.2.0.nupkg.sha512"
    },
    "FluentValidation/8.6.1": {
      "type": "package",
      "serviceable": true,
      "sha512": "sha512-g0xw/YCVgJ1IYpBgKF9iuci/Arf6Dsq9H/WeeT9zaBpjrEA+Cr2GjWXHu1F0DKqVzp4J4hta4gGrRt6H4aESqQ==",
      "path": "fluentvalidation/8.6.1",
      "hashPath": "fluentvalidation.8.6.1.nupkg.sha512"
    },
    "Microsoft.AspNetCore.Cryptography.Internal/2.1.0": {
      "type": "package",
      "serviceable": true,
      "sha512": "sha512-oqKoj5d+zR7/R2T03jq69fJ5w48dJ3Yw+XO3ORJGIV7Vd4eJhwvAOpEQKC3vWyQIKZWEkndIxaWMbfODJY/vsQ==",
      "path": "microsoft.aspnetcore.cryptography.internal/2.1.0",
      "hashPath": "microsoft.aspnetcore.cryptography.internal.2.1.0.nupkg.sha512"
    },
    "Microsoft.AspNetCore.Cryptography.KeyDerivation/2.1.0": {
      "type": "package",
      "serviceable": true,
      "sha512": "sha512-13LH47Gj9SAY8BReIypBOQKT1Imlt1h11mbhk5rtI0s7R0jti7pjxZUKZEiVK8o9NUAGfL0yF6A2PXLRImBZ+w==",
      "path": "microsoft.aspnetcore.cryptography.keyderivation/2.1.0",
      "hashPath": "microsoft.aspnetcore.cryptography.keyderivation.2.1.0.nupkg.sha512"
    },
    "Microsoft.CSharp/4.7.0": {
      "type": "package",
      "serviceable": true,
      "sha512": "sha512-pTj+D3uJWyN3My70i2Hqo+OXixq3Os2D1nJ2x92FFo6sk8fYS1m1WLNTs0Dc1uPaViH0YvEEwvzddQ7y4rhXmA==",
      "path": "microsoft.csharp/4.7.0",
      "hashPath": "microsoft.csharp.4.7.0.nupkg.sha512"
    },
    "Microsoft.Extensions.Configuration/2.1.0": {
      "type": "package",
      "serviceable": true,
      "sha512": "sha512-SS8ce1GYQTkZoOq5bskqQ+m7xiXQjnKRiGfVNZkkX2SX0HpXNRsKnSUaywRRuCje3v2KT9xeacsM3J9/G2exsQ==",
      "path": "microsoft.extensions.configuration/2.1.0",
      "hashPath": "microsoft.extensions.configuration.2.1.0.nupkg.sha512"
    },
    "Microsoft.Extensions.Configuration.Abstractions/2.1.0": {
      "type": "package",
      "serviceable": true,
      "sha512": "sha512-lMmUjAKvY9r6QmxCS15iSb6ulhwnh0zp44NtnVJ+HIDLFmu4iej41U+dU58On8NRezmlgRXiQtLnBeZSzYNKQg==",
      "path": "microsoft.extensions.configuration.abstractions/2.1.0",
      "hashPath": "microsoft.extensions.configuration.abstractions.2.1.0.nupkg.sha512"
    },
    "Microsoft.Extensions.Configuration.Binder/2.1.0": {
      "type": "package",
      "serviceable": true,
      "sha512": "sha512-Fls0O54Ielz1DiVYpcmiUpeizN1iKGGI5yAWAoShfmUvMcQ8jAGOK1a+DaflHA5hN9IOKvmSos0yewDYAIY0ZA==",
      "path": "microsoft.extensions.configuration.binder/2.1.0",
      "hashPath": "microsoft.extensions.configuration.binder.2.1.0.nupkg.sha512"
    },
    "Microsoft.Extensions.DependencyInjection.Abstractions/2.1.1": {
      "type": "package",
      "serviceable": true,
      "sha512": "sha512-MgYpU5cwZohUMKKg3sbPhvGG+eAZ/59E9UwPwlrUkyXU+PGzqwZg9yyQNjhxuAWmoNoFReoemeCku50prYSGzA==",
      "path": "microsoft.extensions.dependencyinjection.abstractions/2.1.1",
      "hashPath": "microsoft.extensions.dependencyinjection.abstractions.2.1.1.nupkg.sha512"
    },
    "Microsoft.Extensions.Identity.Core/2.1.0": {
      "type": "package",
      "serviceable": true,
      "sha512": "sha512-ANFe9HR9thO9CU9x8mc7h1uw75Aqz5uDe7xgGM6t2iBITEidLNhULzqPidI0xV2Mg54pdPMA8/vtS5FRLCQWgQ==",
      "path": "microsoft.extensions.identity.core/2.1.0",
      "hashPath": "microsoft.extensions.identity.core.2.1.0.nupkg.sha512"
    },
    "Microsoft.Extensions.Logging/2.1.0": {
      "type": "package",
      "serviceable": true,
      "sha512": "sha512-kuZbZMMHb7ibzhLdn9/R1+PAAFKntlF10tOw4loB8VuQkHvSrBE6IzW1rhBLsEdmLXOgi2zFbwcXFrxzSM6ybA==",
      "path": "microsoft.extensions.logging/2.1.0",
      "hashPath": "microsoft.extensions.logging.2.1.0.nupkg.sha512"
    },
    "Microsoft.Extensions.Logging.Abstractions/2.1.0": {
      "type": "package",
      "serviceable": true,
      "sha512": "sha512-GfD2VtvN9z1W+m6pZZe98yh9VWTSdNY2dZSxtca9uFIY6aBI6twvskMvLO/ktClBOTQmAov/7Em+IWFlHepa0A==",
      "path": "microsoft.extensions.logging.abstractions/2.1.0",
      "hashPath": "microsoft.extensions.logging.abstractions.2.1.0.nupkg.sha512"
    },
    "Microsoft.Extensions.Options/2.1.0": {
      "type": "package",
      "serviceable": true,
      "sha512": "sha512-VOM1pPMi9+7/4Vc9aPLU8btHOBQy1+AvpqxLxFI2OVtqGv+1klPaV59g9R6aSt2U7ijfB3TjvAO4Tc/cn9/hxA==",
      "path": "microsoft.extensions.options/2.1.0",
      "hashPath": "microsoft.extensions.options.2.1.0.nupkg.sha512"
    },
    "Microsoft.Extensions.Primitives/2.1.0": {
      "type": "package",
      "serviceable": true,
      "sha512": "sha512-gMwH6wgWOPfyfLfMLEP+ZF7/MSJq35e0xxKEYUjt8veEznY45nBVqdfI876+9SFQq2ChcqKf2UyYc2XYj2v27w==",
      "path": "microsoft.extensions.primitives/2.1.0",
      "hashPath": "microsoft.extensions.primitives.2.1.0.nupkg.sha512"
    },
    "Microsoft.NETCore.Platforms/1.1.0": {
      "type": "package",
      "serviceable": true,
      "sha512": "sha512-kz0PEW2lhqygehI/d6XsPCQzD7ff7gUJaVGPVETX611eadGsA3A877GdSlU0LRVMCTH/+P3o2iDTak+S08V2+A==",
      "path": "microsoft.netcore.platforms/1.1.0",
      "hashPath": "microsoft.netcore.platforms.1.1.0.nupkg.sha512"
    },
    "Microsoft.NETCore.Targets/1.1.0": {
      "type": "package",
      "serviceable": true,
      "sha512": "sha512-aOZA3BWfz9RXjpzt0sRJJMjAscAUm3Hoa4UWAfceV9UTYxgwZ1lZt5nO2myFf+/jetYQo4uTP7zS8sJY67BBxg==",
      "path": "microsoft.netcore.targets/1.1.0",
      "hashPath": "microsoft.netcore.targets.1.1.0.nupkg.sha512"
    },
    "NETStandard.Library/2.0.3": {
      "type": "package",
      "serviceable": true,
      "sha512": "sha512-st47PosZSHrjECdjeIzZQbzivYBJFv6P2nv4cj2ypdI204DO+vZ7l5raGMiX4eXMJ53RfOIg+/s4DHVZ54Nu2A==",
      "path": "netstandard.library/2.0.3",
      "hashPath": "netstandard.library.2.0.3.nupkg.sha512"
    },
    "Newtonsoft.Json/12.0.3": {
      "type": "package",
      "serviceable": true,
      "sha512": "sha512-6mgjfnRB4jKMlzHSl+VD+oUc1IebOZabkbyWj2RiTgWwYPPuaK1H97G1sHqGwPlS5npiF5Q0OrxN1wni2n5QWg==",
      "path": "newtonsoft.json/12.0.3",
      "hashPath": "newtonsoft.json.12.0.3.nupkg.sha512"
    },
    "System.Buffers/4.4.0": {
      "type": "package",
      "serviceable": true,
      "sha512": "sha512-AwarXzzoDwX6BgrhjoJsk6tUezZEozOT5Y9QKF94Gl4JK91I4PIIBkBco9068Y9/Dra8Dkbie99kXB8+1BaYKw==",
      "path": "system.buffers/4.4.0",
      "hashPath": "system.buffers.4.4.0.nupkg.sha512"
    },
    "System.ComponentModel.Annotations/4.5.0": {
      "type": "package",
      "serviceable": true,
      "sha512": "sha512-UxYQ3FGUOtzJ7LfSdnYSFd7+oEv6M8NgUatatIN2HxNtDdlcvFAf+VIq4Of9cDMJEJC0aSRv/x898RYhB4Yppg==",
      "path": "system.componentmodel.annotations/4.5.0",
      "hashPath": "system.componentmodel.annotations.4.5.0.nupkg.sha512"
    },
    "System.IO/4.3.0": {
      "type": "package",
      "serviceable": true,
      "sha512": "sha512-3qjaHvxQPDpSOYICjUoTsmoq5u6QJAFRUITgeT/4gqkF1bajbSmb1kwSxEA8AHlofqgcKJcM8udgieRNhaJ5Cg==",
      "path": "system.io/4.3.0",
      "hashPath": "system.io.4.3.0.nupkg.sha512"
    },
    "System.Memory/4.5.0": {
      "type": "package",
      "serviceable": true,
      "sha512": "sha512-m0psCSpUxTGfvwyO0i03ajXVhgBqyXlibXz0Mo1dtKGjaHrXFLnuQ8rNBTmWRqbfRjr4eC6Wah4X5FfuFDu5og==",
      "path": "system.memory/4.5.0",
      "hashPath": "system.memory.4.5.0.nupkg.sha512"
    },
    "System.Numerics.Vectors/4.4.0": {
      "type": "package",
      "serviceable": true,
      "sha512": "sha512-UiLzLW+Lw6HLed1Hcg+8jSRttrbuXv7DANVj0DkL9g6EnnzbL75EB7EWsw5uRbhxd/4YdG8li5XizGWepmG3PQ==",
      "path": "system.numerics.vectors/4.4.0",
      "hashPath": "system.numerics.vectors.4.4.0.nupkg.sha512"
    },
    "System.Reflection/4.3.0": {
      "type": "package",
      "serviceable": true,
      "sha512": "sha512-KMiAFoW7MfJGa9nDFNcfu+FpEdiHpWgTcS2HdMpDvt9saK3y/G4GwprPyzqjFH9NTaGPQeWNHU+iDlDILj96aQ==",
      "path": "system.reflection/4.3.0",
      "hashPath": "system.reflection.4.3.0.nupkg.sha512"
    },
    "System.Reflection.Emit/4.3.0": {
      "type": "package",
      "serviceable": true,
      "sha512": "sha512-228FG0jLcIwTVJyz8CLFKueVqQK36ANazUManGaJHkO0icjiIypKW7YLWLIWahyIkdh5M7mV2dJepllLyA1SKg==",
      "path": "system.reflection.emit/4.3.0",
      "hashPath": "system.reflection.emit.4.3.0.nupkg.sha512"
    },
    "System.Reflection.Emit.ILGeneration/4.3.0": {
      "type": "package",
      "serviceable": true,
      "sha512": "sha512-59tBslAk9733NXLrUJrwNZEzbMAcu8k344OYo+wfSVygcgZ9lgBdGIzH/nrg3LYhXceynyvTc8t5/GD4Ri0/ng==",
      "path": "system.reflection.emit.ilgeneration/4.3.0",
      "hashPath": "system.reflection.emit.ilgeneration.4.3.0.nupkg.sha512"
    },
    "System.Reflection.Primitives/4.3.0": {
      "type": "package",
      "serviceable": true,
      "sha512": "sha512-5RXItQz5As4xN2/YUDxdpsEkMhvw3e6aNveFXUn4Hl/udNTCNhnKp8lT9fnc3MhvGKh1baak5CovpuQUXHAlIA==",
      "path": "system.reflection.primitives/4.3.0",
      "hashPath": "system.reflection.primitives.4.3.0.nupkg.sha512"
    },
    "System.Runtime/4.3.0": {
      "type": "package",
      "serviceable": true,
      "sha512": "sha512-JufQi0vPQ0xGnAczR13AUFglDyVYt4Kqnz1AZaiKZ5+GICq0/1MH/mO/eAJHt/mHW1zjKBJd7kV26SrxddAhiw==",
      "path": "system.runtime/4.3.0",
      "hashPath": "system.runtime.4.3.0.nupkg.sha512"
    },
    "System.Runtime.CompilerServices.Unsafe/4.5.0": {
      "type": "package",
      "serviceable": true,
      "sha512": "sha512-YrzNWduCDHhUaSRBxHxL11UkM2fD6y8hITHis4/LbQZ6vj3vdRjoH3IoPWWC9uDXK2wHIqn+b5gv1Np/VKyM1g==",
      "path": "system.runtime.compilerservices.unsafe/4.5.0",
      "hashPath": "system.runtime.compilerservices.unsafe.4.5.0.nupkg.sha512"
    },
    "System.Text.Encoding/4.3.0": {
      "type": "package",
      "serviceable": true,
      "sha512": "sha512-BiIg+KWaSDOITze6jGQynxg64naAPtqGHBwDrLaCtixsa5bKiR8dpPOHA7ge3C0JJQizJE+sfkz1wV+BAKAYZw==",
      "path": "system.text.encoding/4.3.0",
      "hashPath": "system.text.encoding.4.3.0.nupkg.sha512"
    },
    "System.Threading.Tasks/4.3.0": {
      "type": "package",
      "serviceable": true,
      "sha512": "sha512-LbSxKEdOUhVe8BezB/9uOGGppt+nZf6e1VFyw6v3DN6lqitm0OSn2uXMOdtP0M3W4iMcqcivm2J6UgqiwwnXiA==",
      "path": "system.threading.tasks/4.3.0",
      "hashPath": "system.threading.tasks.4.3.0.nupkg.sha512"
    },
    "Axiobat.Domain/1.0.0": {
      "type": "project",
      "serviceable": false,
      "sha512": ""
    }
  }
}