{
  "runtimeTarget": {
    "name": ".NETStandard,Version=v2.0/",
    "signature": ""
  },
  "compilationOptions": {},
  "targets": {
    ".NETStandard,Version=v2.0": {},
    ".NETStandard,Version=v2.0/": {
      "Axiobat.Domain/1.0.0": {
        "dependencies": {
          "Application.Common": "1.0.0.29",
          "Microsoft.CSharp": "4.7.0",
          "NETStandard.Library": "2.0.3",
          "Newtonsoft.Json": "12.0.3"
        },
        "runtime": {
          "Axiobat.Domain.dll": {}
        }
      },
      "Application.Common/1.0.0.29": {
        "dependencies": {
          "Newtonsoft.Json": "12.0.3"
        },
        "runtime": {
          "lib/netstandard2.0/Application.Common.dll": {
            "assemblyVersion": "1.0.0.0",
            "fileVersion": "1.0.0.0"
          }
        }
      },
      "Microsoft.CSharp/4.7.0": {
        "runtime": {
          "lib/netstandard2.0/Microsoft.CSharp.dll": {
            "assemblyVersion": "4.0.5.0",
            "fileVersion": "4.700.19.56404"
          }
        }
      },
      "Microsoft.NETCore.Platforms/1.1.0": {},
      "NETStandard.Library/2.0.3": {
        "dependencies": {
          "Microsoft.NETCore.Platforms": "1.1.0"
        }
      },
      "Newtonsoft.Json/12.0.3": {
        "runtime": {
          "lib/netstandard2.0/Newtonsoft.Json.dll": {
            "assemblyVersion": "12.0.0.0",
            "fileVersion": "12.0.3.23909"
          }
        }
      }
    }
  },
  "libraries": {
    "Axiobat.Domain/1.0.0": {
      "type": "project",
      "serviceable": false,
      "sha512": ""
    },
    "Application.Common/1.0.0.29": {
      "type": "package",
      "serviceable": true,
      "sha512": "sha512-hrIVXLFk730vgekCj2AYCji1iRB8x5N68Vz37SdI9p3ctYPhM7K7i+6Wk65XyPpdFRnkGiftMsdd7TLTNLLiPQ==",
      "path": "application.common/1.0.0.29",
      "hashPath": "application.common.1.0.0.29.nupkg.sha512"
    },
    "Microsoft.CSharp/4.7.0": {
      "type": "package",
      "serviceable": true,
      "sha512": "sha512-pTj+D3uJWyN3My70i2Hqo+OXixq3Os2D1nJ2x92FFo6sk8fYS1m1WLNTs0Dc1uPaViH0YvEEwvzddQ7y4rhXmA==",
      "path": "microsoft.csharp/4.7.0",
      "hashPath": "microsoft.csharp.4.7.0.nupkg.sha512"
    },
    "Microsoft.NETCore.Platforms/1.1.0": {
      "type": "package",
      "serviceable": true,
      "sha512": "sha512-kz0PEW2lhqygehI/d6XsPCQzD7ff7gUJaVGPVETX611eadGsA3A877GdSlU0LRVMCTH/+P3o2iDTak+S08V2+A==",
      "path": "microsoft.netcore.platforms/1.1.0",
      "hashPath": "microsoft.netcore.platforms.1.1.0.nupkg.sha512"
    },
    "NETStandard.Library/2.0.3": {
      "type": "package",
      "serviceable": true,
      "sha512": "sha512-st47PosZSHrjECdjeIzZQbzivYBJFv6P2nv4cj2ypdI204DO+vZ7l5raGMiX4eXMJ53RfOIg+/s4DHVZ54Nu2A==",
      "path": "netstandard.library/2.0.3",
      "hashPath": "netstandard.library.2.0.3.nupkg.sha512"
    },
    "Newtonsoft.Json/12.0.3": {
      "type": "package",
      "serviceable": true,
      "sha512": "sha512-6mgjfnRB4jKMlzHSl+VD+oUc1IebOZabkbyWj2RiTgWwYPPuaK1H97G1sHqGwPlS5npiF5Q0OrxN1wni2n5QWg==",
      "path": "newtonsoft.json/12.0.3",
      "hashPath": "newtonsoft.json.12.0.3.nupkg.sha512"
    }
  }
}