[
  {

    "id": 2020,
    "Goal": 1000,
    "createdOn": "2020-02-15T12:53:17+00:00",
    "lastModifiedOn": "2020-02-15T12:53:18+00:00",
    "searchTerms": "goal",
    "MonthlyGoals": [
      {
        "Month": 1,
        "Goal": 10
      },
      {
        "Month": 2,
        "Goal": 10
      },
      {
        "Month": 3,
        "Goal": 10
      },
      {
        "Month": 4,
        "Goal": 10
      },
      {
        "Month": 5,
        "Goal": 10
      },
      {
        "Month": 6,
        "Goal": 10
      },
      {
        "Month": 7,
        "Goal": 10
      },
      {
        "Month": 8,
        "Goal": 10
      },
      {
        "Month": 9,
        "Goal": 10
      },
      {
        "Month": 10,
        "Goal": 10
      },
      {
        "Month": 11,
        "Goal": 10
      },
      {
        "Month": 12,
        "Goal": 10
      }
    ]
  }
]