[
  {
    "Id": "operation_sheet_assignment",
    "TitleContent": [
      {
        "LanguageCode": "FR",
        "Content": "Affectation d'une nouvelle intervention chantier"
      }
    ],
    "BodyContent": [
      {
        "LanguageCode": "FR",
        "Content": "intervention: ##reference## pour client: ##client_name##, debut le ##start_date##"
      }
    ]
  }
]
